%YAML 1.1
%TAG !u! tag:unity3d.com,2011:
--- !u!74 &7400000
AnimationClip:
  m_ObjectHideFlags: 0
  m_PrefabParentObject: {fileID: 0}
  m_PrefabInternal: {fileID: 0}
  m_Name: Blink
  serializedVersion: 6
  m_Legacy: 0
  m_Compressed: 0
  m_UseHighQualityCurve: 1
  m_RotationCurves: []
  m_CompressedRotationCurves: []
  m_EulerCurves: []
  m_PositionCurves: []
  m_ScaleCurves: []
  m_FloatCurves: []
  m_PPtrCurves:
  - curve:
    - time: 0
      value: {fileID: 0}
    - time: 0.033333335
      value: {fileID: 21300000, guid: 7e0c6fb9c5be84e4996888c9b827ac94, type: 3}
    - time: 0.05
      value: {fileID: 21300000, guid: ac5ac1d6fc731514386c581d746bd353, type: 3}
    - time: 0.06666667
      value: {fileID: 21300000, guid: 14d69a575bbe4424d8e73716b38cfd07, type: 3}
    - time: 0.083333336
      value: {fileID: 21300000, guid: dd8fba11a008e5d43bb19f91471aad94, type: 3}
    - time: 0.1
      value: {fileID: 21300000, guid: 1dbdc0cfb8b71224b9831164c2ec29f4, type: 3}
    - time: 0.11666667
      value: {fileID: 21300000, guid: d2636815c6e417048b521ef2c5f0089f, type: 3}
    - time: 0.13333334
      value: {fileID: 21300000, guid: ecaf4ab2713c48a4eb0a328d01cb4387, type: 3}
    - time: 0.15
      value: {fileID: 21300000, guid: 9b8c4777a77e1c84daa817cefee15047, type: 3}
    - time: 0.16666667
      value: {fileID: 21300000, guid: b08b296f3f1f3744aa6055ba84c285f3, type: 3}
    - time: 0.18333334
      value: {fileID: 21300000, guid: b08b296f3f1f3744aa6055ba84c285f3, type: 3}
    - time: 0.2
      value: {fileID: 21300000, guid: 9b8c4777a77e1c84daa817cefee15047, type: 3}
    - time: 0.21666667
      value: {fileID: 21300000, guid: ecaf4ab2713c48a4eb0a328d01cb4387, type: 3}
    - time: 0.23333333
      value: {fileID: 21300000, guid: d2636815c6e417048b521ef2c5f0089f, type: 3}
    - time: 0.25
      value: {fileID: 21300000, guid: 1dbdc0cfb8b71224b9831164c2ec29f4, type: 3}
    - time: 0.26666668
      value: {fileID: 21300000, guid: dd8fba11a008e5d43bb19f91471aad94, type: 3}
    - time: 0.28333333
      value: {fileID: 21300000, guid: 14d69a575bbe4424d8e73716b38cfd07, type: 3}
    - time: 0.3
      value: {fileID: 21300000, guid: ac5ac1d6fc731514386c581d746bd353, type: 3}
    - time: 0.31666666
      value: {fileID: 21300000, guid: 7e0c6fb9c5be84e4996888c9b827ac94, type: 3}
    - time: 0.33333334
      value: {fileID: 0}
    - time: 1.3333334
      value: {fileID: 0}
    attribute: m_Sprite
    path: 
    classID: 212
    script: {fileID: 0}
  m_SampleRate: 60
  m_WrapMode: 0
  m_Bounds:
    m_Center: {x: 0, y: 0, z: 0}
    m_Extent: {x: 0, y: 0, z: 0}
  m_ClipBindingConstant:
    genericBindings:
    - path: 0
      attribute: 0
      script: {fileID: 0}
      classID: 212
      customType: 23
      isPPtrCurve: 1
    pptrCurveMapping:
    - {fileID: 0}
    - {fileID: 21300000, guid: 7e0c6fb9c5be84e4996888c9b827ac94, type: 3}
    - {fileID: 21300000, guid: ac5ac1d6fc731514386c581d746bd353, type: 3}
    - {fileID: 21300000, guid: 14d69a575bbe4424d8e73716b38cfd07, type: 3}
    - {fileID: 21300000, guid: dd8fba11a008e5d43bb19f91471aad94, type: 3}
    - {fileID: 21300000, guid: 1dbdc0cfb8b71224b9831164c2ec29f4, type: 3}
    - {fileID: 21300000, guid: d2636815c6e417048b521ef2c5f0089f, type: 3}
    - {fileID: 21300000, guid: ecaf4ab2713c48a4eb0a328d01cb4387, type: 3}
    - {fileID: 21300000, guid: 9b8c4777a77e1c84daa817cefee15047, type: 3}
    - {fileID: 21300000, guid: b08b296f3f1f3744aa6055ba84c285f3, type: 3}
    - {fileID: 21300000, guid: b08b296f3f1f3744aa6055ba84c285f3, type: 3}
    - {fileID: 21300000, guid: 9b8c4777a77e1c84daa817cefee15047, type: 3}
    - {fileID: 21300000, guid: ecaf4ab2713c48a4eb0a328d01cb4387, type: 3}
    - {fileID: 21300000, guid: d2636815c6e417048b521ef2c5f0089f, type: 3}
    - {fileID: 21300000, guid: 1dbdc0cfb8b71224b9831164c2ec29f4, type: 3}
    - {fileID: 21300000, guid: dd8fba11a008e5d43bb19f91471aad94, type: 3}
    - {fileID: 21300000, guid: 14d69a575bbe4424d8e73716b38cfd07, type: 3}
    - {fileID: 21300000, guid: ac5ac1d6fc731514386c581d746bd353, type: 3}
    - {fileID: 21300000, guid: 7e0c6fb9c5be84e4996888c9b827ac94, type: 3}
    - {fileID: 0}
    - {fileID: 0}
  m_AnimationClipSettings:
    serializedVersion: 2
    m_AdditiveReferencePoseClip: {fileID: 0}
    m_AdditiveReferencePoseTime: 0
    m_StartTime: 0
    m_StopTime: 1.35
    m_OrientationOffsetY: 0
    m_Level: 0
    m_CycleOffset: 0
    m_HasAdditiveReferencePose: 0
    m_LoopTime: 1
    m_LoopBlend: 0
    m_LoopBlendOrientation: 0
    m_LoopBlendPositionY: 0
    m_LoopBlendPositionXZ: 0
    m_KeepOriginalOrientation: 0
    m_KeepOriginalPositionY: 1
    m_KeepOriginalPositionXZ: 0
    m_HeightFromFeet: 0
    m_Mirror: 0
  m_EditorCurves: []
  m_EulerEditorCurves: []
  m_HasGenericRootTransform: 0
  m_HasMotionFloatCurves: 0
  m_GenerateMotionCurves: 0
  m_Events: []
