%YAML 1.1
%TAG !u! tag:unity3d.com,2011:
--- !u!74 &7400000
AnimationClip:
  m_ObjectHideFlags: 0
  m_PrefabParentObject: {fileID: 0}
  m_PrefabInternal: {fileID: 0}
  m_Name: Pop
  serializedVersion: 6
  m_Legacy: 0
  m_Compressed: 0
  m_UseHighQualityCurve: 1
  m_RotationCurves: []
  m_CompressedRotationCurves: []
  m_EulerCurves: []
  m_PositionCurves: []
  m_ScaleCurves:
  - curve:
      serializedVersion: 2
      m_Curve:
      - time: 0
        value: {x: 0.109332085, y: 0.109332085, z: 0.109332085}
        inSlope: {x: 2.6191385, y: 2.6191385, z: 2.6191385}
        outSlope: {x: 2.6191385, y: 2.6191385, z: 2.6191385}
        tangentMode: 0
      - time: 0.041666668
        value: {x: 0.21846285, y: 0.21846285, z: 0.21846285}
        inSlope: {x: 2.8903456, y: 2.8903444, z: 2.8903444}
        outSlope: {x: 2.8903456, y: 2.8903444, z: 2.8903444}
        tangentMode: 0
      - time: 0.125
        value: {x: 0.48192558, y: 0.48192537, z: 0.48192537}
        inSlope: {x: 1.5807765, y: 1.5807751, z: 1.5807751}
        outSlope: {x: 1.5807765, y: 1.5807751, z: 1.5807751}
        tangentMode: 0
      - time: 0.16666667
        value: {x: 0.48192558, y: 0.48192537, z: 0.48192537}
        inSlope: {x: 0, y: 0, z: 0}
        outSlope: {x: 0, y: 0, z: 0}
        tangentMode: 0
      m_PreInfinity: 2
      m_PostInfinity: 2
      m_RotationOrder: 4
    path: 
  m_FloatCurves: []
  m_PPtrCurves:
  - curve:
    - time: 0
      value: {fileID: 21300000, guid: f6fd428ce723d2b468c638f24e492f95, type: 3}
    - time: 0.041666668
      value: {fileID: 21300000, guid: c74eabe929c39d5459055b30ac895abb, type: 3}
    - time: 0.083333336
      value: {fileID: 21300000, guid: 795d9fc0ce159474e844de1e65bde61e, type: 3}
    - time: 0.125
      value: {fileID: 21300000, guid: 6253f0afab6bbb444874d26af10c3fc1, type: 3}
    - time: 0.16666667
      value: {fileID: 21300000, guid: 6253f0afab6bbb444874d26af10c3fc1, type: 3}
    attribute: m_Sprite
    path: 
    classID: 212
    script: {fileID: 0}
  m_SampleRate: 24
  m_WrapMode: 0
  m_Bounds:
    m_Center: {x: 0, y: 0, z: 0}
    m_Extent: {x: 0, y: 0, z: 0}
  m_ClipBindingConstant:
    genericBindings:
    - path: 0
      attribute: 3
      script: {fileID: 0}
      classID: 4
      customType: 0
      isPPtrCurve: 0
    - path: 0
      attribute: 0
      script: {fileID: 0}
      classID: 212
      customType: 23
      isPPtrCurve: 1
    pptrCurveMapping:
    - {fileID: 21300000, guid: f6fd428ce723d2b468c638f24e492f95, type: 3}
    - {fileID: 21300000, guid: c74eabe929c39d5459055b30ac895abb, type: 3}
    - {fileID: 21300000, guid: 795d9fc0ce159474e844de1e65bde61e, type: 3}
    - {fileID: 21300000, guid: 6253f0afab6bbb444874d26af10c3fc1, type: 3}
    - {fileID: 21300000, guid: 6253f0afab6bbb444874d26af10c3fc1, type: 3}
  m_AnimationClipSettings:
    serializedVersion: 2
    m_AdditiveReferencePoseClip: {fileID: 0}
    m_AdditiveReferencePoseTime: 0
    m_StartTime: 0
    m_StopTime: 0.20833334
    m_OrientationOffsetY: 0
    m_Level: 0
    m_CycleOffset: 0
    m_HasAdditiveReferencePose: 0
    m_LoopTime: 1
    m_LoopBlend: 0
    m_LoopBlendOrientation: 0
    m_LoopBlendPositionY: 0
    m_LoopBlendPositionXZ: 0
    m_KeepOriginalOrientation: 0
    m_KeepOriginalPositionY: 1
    m_KeepOriginalPositionXZ: 0
    m_HeightFromFeet: 0
    m_Mirror: 0
  m_EditorCurves:
  - curve:
      serializedVersion: 2
      m_Curve:
      - time: 0
        value: 0.109332085
        inSlope: 2.6191385
        outSlope: 2.6191385
        tangentMode: 10
      - time: 0.041666668
        value: 0.21846285
        inSlope: 2.8903456
        outSlope: 2.8903456
        tangentMode: 10
      - time: 0.125
        value: 0.48192558
        inSlope: 1.5807765
        outSlope: 1.5807765
        tangentMode: 10
      - time: 0.16666667
        value: 0.48192558
        inSlope: 0
        outSlope: 0
        tangentMode: 10
      m_PreInfinity: 2
      m_PostInfinity: 2
      m_RotationOrder: 4
    attribute: m_LocalScale.x
    path: 
    classID: 4
    script: {fileID: 0}
  - curve:
      serializedVersion: 2
      m_Curve:
      - time: 0
        value: 0.109332085
        inSlope: 2.6191385
        outSlope: 2.6191385
        tangentMode: 10
      - time: 0.041666668
        value: 0.21846285
        inSlope: 2.8903444
        outSlope: 2.8903444
        tangentMode: 10
      - time: 0.125
        value: 0.48192537
        inSlope: 1.5807751
        outSlope: 1.5807751
        tangentMode: 10
      - time: 0.16666667
        value: 0.48192537
        inSlope: 0
        outSlope: 0
        tangentMode: 10
      m_PreInfinity: 2
      m_PostInfinity: 2
      m_RotationOrder: 4
    attribute: m_LocalScale.y
    path: 
    classID: 4
    script: {fileID: 0}
  - curve:
      serializedVersion: 2
      m_Curve:
      - time: 0
        value: 0.109332085
        inSlope: 2.6191385
        outSlope: 2.6191385
        tangentMode: 10
      - time: 0.041666668
        value: 0.21846285
        inSlope: 2.8903444
        outSlope: 2.8903444
        tangentMode: 10
      - time: 0.125
        value: 0.48192537
        inSlope: 1.5807751
        outSlope: 1.5807751
        tangentMode: 10
      - time: 0.16666667
        value: 0.48192537
        inSlope: 0
        outSlope: 0
        tangentMode: 10
      m_PreInfinity: 2
      m_PostInfinity: 2
      m_RotationOrder: 4
    attribute: m_LocalScale.z
    path: 
    classID: 4
    script: {fileID: 0}
  m_EulerEditorCurves: []
  m_HasGenericRootTransform: 0
  m_HasMotionFloatCurves: 0
  m_GenerateMotionCurves: 0
  m_Events: []
